-- Merging decision tree log ---
manifest
ADDED from C:\Users\ASUS_\AndroidStudioProjects\PersonFocusedAnimator\app\src\main\AndroidManifest.xml:2:1-18:12
	package
		ADDED from C:\Users\ASUS_\AndroidStudioProjects\PersonFocusedAnimator\app\src\main\AndroidManifest.xml:3:7-42
		INJECTED from C:\Users\ASUS_\AndroidStudioProjects\PersonFocusedAnimator\app\src\main\AndroidManifest.xml
		INJECTED from C:\Users\ASUS_\AndroidStudioProjects\PersonFocusedAnimator\app\src\main\AndroidManifest.xml
	android:versionName
		ADDED from C:\Users\ASUS_\AndroidStudioProjects\PersonFocusedAnimator\app\src\main\AndroidManifest.xml:5:7-34
		INJECTED from C:\Users\ASUS_\AndroidStudioProjects\PersonFocusedAnimator\app\src\main\AndroidManifest.xml
		INJECTED from C:\Users\ASUS_\AndroidStudioProjects\PersonFocusedAnimator\app\src\main\AndroidManifest.xml
	android:versionCode
		ADDED from C:\Users\ASUS_\AndroidStudioProjects\PersonFocusedAnimator\app\src\main\AndroidManifest.xml:4:7-30
		INJECTED from C:\Users\ASUS_\AndroidStudioProjects\PersonFocusedAnimator\app\src\main\AndroidManifest.xml
		INJECTED from C:\Users\ASUS_\AndroidStudioProjects\PersonFocusedAnimator\app\src\main\AndroidManifest.xml
	xmlns:android
		ADDED from C:\Users\ASUS_\AndroidStudioProjects\PersonFocusedAnimator\app\src\main\AndroidManifest.xml:2:11-69
uses-sdk
ADDED from C:\Users\ASUS_\AndroidStudioProjects\PersonFocusedAnimator\app\src\main\AndroidManifest.xml:6:5-43
	android:targetSdkVersion
		INJECTED from C:\Users\ASUS_\AndroidStudioProjects\PersonFocusedAnimator\app\src\main\AndroidManifest.xml
		INJECTED from C:\Users\ASUS_\AndroidStudioProjects\PersonFocusedAnimator\app\src\main\AndroidManifest.xml
	android:minSdkVersion
		ADDED from C:\Users\ASUS_\AndroidStudioProjects\PersonFocusedAnimator\app\src\main\AndroidManifest.xml:6:15-40
		INJECTED from C:\Users\ASUS_\AndroidStudioProjects\PersonFocusedAnimator\app\src\main\AndroidManifest.xml
		INJECTED from C:\Users\ASUS_\AndroidStudioProjects\PersonFocusedAnimator\app\src\main\AndroidManifest.xml
application
ADDED from C:\Users\ASUS_\AndroidStudioProjects\PersonFocusedAnimator\app\src\main\AndroidManifest.xml:8:5-16:19
	android:label
		ADDED from C:\Users\ASUS_\AndroidStudioProjects\PersonFocusedAnimator\app\src\main\AndroidManifest.xml:8:18-50
activity#com.personfocusedanimator.MainActivity
ADDED from C:\Users\ASUS_\AndroidStudioProjects\PersonFocusedAnimator\app\src\main\AndroidManifest.xml:9:9-15:20
	android:label
		ADDED from C:\Users\ASUS_\AndroidStudioProjects\PersonFocusedAnimator\app\src\main\AndroidManifest.xml:10:19-51
	android:name
		ADDED from C:\Users\ASUS_\AndroidStudioProjects\PersonFocusedAnimator\app\src\main\AndroidManifest.xml:9:19-72
intent-filter#android.intent.action.MAIN+android.intent.category.LAUNCHER
ADDED from C:\Users\ASUS_\AndroidStudioProjects\PersonFocusedAnimator\app\src\main\AndroidManifest.xml:11:13-14:29
action#android.intent.action.MAIN
ADDED from C:\Users\ASUS_\AndroidStudioProjects\PersonFocusedAnimator\app\src\main\AndroidManifest.xml:12:17-69
	android:name
		ADDED from C:\Users\ASUS_\AndroidStudioProjects\PersonFocusedAnimator\app\src\main\AndroidManifest.xml:12:25-66
category#android.intent.category.LAUNCHER
ADDED from C:\Users\ASUS_\AndroidStudioProjects\PersonFocusedAnimator\app\src\main\AndroidManifest.xml:13:17-77
	android:name
		ADDED from C:\Users\ASUS_\AndroidStudioProjects\PersonFocusedAnimator\app\src\main\AndroidManifest.xml:13:27-74
uses-permission#android.permission.CAMERA
ADDED from C:\Users\ASUS_\AndroidStudioProjects\PersonFocusedAnimator\app\src\main\AndroidManifest.xml:17:5-65
	android:name
		ADDED from C:\Users\ASUS_\AndroidStudioProjects\PersonFocusedAnimator\app\src\main\AndroidManifest.xml:17:22-62
